#,#,#,#,#,#,#,#,#,#,#,#,#,#,#,#,#,#,#,#,#,#,#,#,#,#,#,#
#,P, , , , , , , , , , , ,#,#, , , , , , , , , , , , ,#
#, ,#,#,#,#, ,#,#,#,#,#, ,#,#, ,#,#,#,#,#, ,#,#,#,#, ,#
#,S,#,E,E,#, ,#,E,E,E,#, ,#,#, ,#,E,E,E,#, ,#,E,E,#,S,#
#, ,#,#,#,#, ,#,#,#,#,#, ,#,#, ,#,#,#,#,#, ,#,#,#,#, ,#
#, , , , , , , , , , , , , , , , , , , , , , , , , , ,#
#, ,#,#,#,#, ,#,#, ,#,#,#,#,#,#,#,#, ,#,#, ,#,#,#,#, ,#
#, ,#,#,#,#, ,#,#, ,#,#,#,#,#,#,#,#, ,#,#, ,#,#,#,#, ,#
#, , , , , , ,#,#, , , , ,#,#, , , , ,#,#, , , , , , ,#
#,#,#,#,#,#, ,#,#,#,#,#,E,#,#,E,#,#,#,#,#, ,#,#,#,#,#,#
E,E,E,E,E,#, ,#,#,#,#,#,E,#,#,E,#,#,#,#,#, ,#,E,E,E,E,E
E,E,E,E,E,#, ,#,#,E,E,E,E,G,E,E,E,E,E,#,#, ,#,E,E,E,E,E
E,E,E,E,E,#, ,#,#,E,#,#,#,#,#,#,#,#,E,#,#, ,#,E,E,E,E,E
#,#,#,#,#,#, ,#,#,E,#,E,E,E,E,E,E,#,E,#,#, ,#,#,#,#,#,#
 , , , , , , ,E,E,E,#,H,E,H,E,H,E,#,E,E,E, , , , , , , 
#,#,#,#,#,#, ,#,#,E,#,E,E,E,E,E,E,#,E,#,#, ,#,#,#,#,#,#
E,E,E,E,E,#, ,#,#,E,#,#,#,#,#,#,#,#,E,#,#, ,#,E,E,E,E,E 
E,E,E,E,E,#, ,#,#,E,E,E,E,E,E,E,E,E,E,#,#, ,#,E,E,E,E,E 
E,E,E,E,E,#, ,#,#,E,#,#,#,#,#,#,#,#,E,#,#, ,#,E,E,E,E,E
#,#,#,#,#,#, ,#,#,E,#,#,#,#,#,#,#,#,E,#,#, ,#,#,#,#,#,#
#, , , , , , , , , , , , ,#,#, , , , , , , , , , , , ,#
#, ,#,#,#,#, ,#,#,#,#,#, ,#,#, ,#,#,#,#,#, ,#,#,#,#, ,#
#, ,#,#,#,#, ,#,#,#,#,#, ,#,#, ,#,#,#,#,#, ,#,#,#,#, ,#
#,S, , ,#,#, , , , , , , , , , , , , , , , ,#,#, , ,S,#
#,#,#, ,#,#, ,#,#, ,#,#,#,#,#,#,#,#, ,#,#, ,#,#, ,#,#,#
#,#,#, ,#,#, ,#,#, ,#,#,#,#,#,#,#,#, ,#,#, ,#,#, ,#,#,#
#, , , , , , ,#,#, , , , ,#,#, , , , ,#,#, , , , , , ,#
#, ,#,#,#,#,#,#,#,#,#,#, ,#,#, ,#,#,#,#,#,#,#,#,#,#, ,#
#, ,#,#,#,#,#,#,#,#,#,#, ,#,#, ,#,#,#,#,#,#,#,#,#,#, ,#
#, , , , , , , , , , , , , , , , , , , , , , , , , , ,#
#,#,#,#,#,#,#,#,#,#,#,#,#,#,#,#,#,#,#,#,#,#,#,#,#,#,#,#